A Statistical Interrogation of “The Case for Causality, Part 1” by Rausch and Haidt – Matthew B. Jané
…
Summarizing and reproducing Ferguson (2024)

Okay now that we have set up our model, we can now actually look at the data from the meta-analysis. Let’s load in some R packages and the dataset from the OSF repository referenced in Ferguson (2024).

# load in packages
library(osfr)
library(tidyverse)
library(metafor)
library(readxl)
library(psychmeta)

# download data from OSF repo
read_xlsx("~/Documents/MatthewBJane/blog-posts/Best Practices Coding Experiments.xlsx")

# A tibble: 35 × 16
   Citation       block     n      d Standardized Outcome…¹ `Validated Outcomes`
   <chr>          <lgl> <dbl>  <dbl>                  <dbl>                <dbl>
 1 Alcott 2020    NA     1661  0.09                       1                    1
 2 Brailovskaia … NA      286  0.154                      1                    1
 3 Brailovskaia … NA      322  0                          1                    1
 4 Collins and E… NA      121 -0.138                      1                    1
 5 Deters & Mehl… NA       86 -0.207                      1                    1
 6 Faulhaber et … NA      230  0.484                      1                    1
 7 Gajdics 2022   NA      235 -0.364                      1                    1
 8 Hall et al. 2… NA      130 -0.007                      1                    1
 9 Hunt 2018      NA      143  0.232                      1                    1
10 Hunt 2021      NA       88  0.374                      1                    1
# ℹ 25 more rows
# ℹ abbreviated name: ¹​`Standardized Outcomes`
# ℹ 10 more variables: `Matched Control Condition` <dbl>,
#   `Distractor Questionnaires` <dbl>, `Query hypothesis guessing` <dbl>,
#   Preregistration <dbl>, Age <dbl>, Year <dbl>, `Best Practices Total` <dbl>,
#   `Verified 1= yes, 2=no` <dbl>, `Ratio at post` <dbl>,
#   `Citation Bias 1=yes, 2 = no` <dbl>
…
